Data – Zeynep and Ömer’s Project Lab
…
I wanted the get rid of the first 5 rows because they were unnecessary

Click to see the code

orman_dagilimi <- orman_dagilimi %>% 
  slice(-(1:5))
print(orman_dagilimi)

# A tibble: 84 × 14
   ...1  ...2  ...3  ...4  ...5  ...6  ...7  ...8  ...9  ...10 ...11 ...12 ...13
   <chr> <chr> <chr> <chr> <chr> <chr> <chr> <chr> <chr> <chr> <lgl> <chr> <chr>
 1 TR    Türk… 7800… 1381… 9549… 2336… 29.9… 1735… 6297… 1798… NA    4900… 1951…
 2 TR100 İsta… 5416… 2254… 15275 2406… 44.4… 1699… 1874… 1718… NA    7527… 4280 
 3 TR211 Teki… 6285… 92439 8735  1011… 16.0… 4003… 48834 4052… NA    1854… 1135 
 4 TR212 Edir… 6173… 72390 30624 1030… 16.6… 6278… 1629… 6441… NA    3038… 4663 
 5 TR213 Kırk… 6415… 2233… 30792 2541… 39.6… 3736… 2797… 3764… NA    1115… 11515
 6 TR221 Balı… 1460… 4351… 1972… 6324… 43.3… 6391… 1525… 6544… NA    1882… 49157
 7 TR222 Çana… 1000… 3704… 1097… 4802… 48.0… 5482… 8796… 5570… NA    1780… 31126
 8 TR310 İzmir 1182… 2676… 2108… 4785… 40.4… 2453… 1116… 2565… NA    8804… 51784
 9 TR321 Aydın 8226… 2059… 1209… 3269… 39.7… 1808… 7135… 1880… NA    5817… 26196
10 TR322 Deni… 1217… 3435… 2451… 5886… 48.3… 3422… 1374… 3560… NA    9342… 25206
# ℹ 74 more rows
# ℹ 1 more variable: ...14 <chr>
…
